-----------Exception Details on  06-01-2022 11:27:07 AM-----------------
-------------------------------------------------------------------------------------



Log Written Date: 06-01-2022 11:27:07 AM

Error Line No : line 76

Error Message: ThreadAbortException

Exception Type: System.Threading.ThreadAbortException

Error Location : Thread was being aborted.

 Error Page Url: http://localhost:56832/Admin.aspx?Fbj8B3qg9S1Qy7PJpim8iHKjzEKpcbHWnkmzL5IsQIdPFC4rXIXX0mY4hrUX6pZA%2bqaKouRzGF0zsgUzR0w6QUAqaB1YS5N6%2bifXX3cmkAu843OB4GZEoInlotGYfh0b

User Host IP: 


--------------------------------*End*------------------------------------------



-----------Exception Details on  06-01-2022 11:27:59 AM-----------------
-------------------------------------------------------------------------------------



Log Written Date: 06-01-2022 11:27:59 AM

Error Line No : line 69

Error Message: DivideByZeroException

Exception Type: System.DivideByZeroException

Error Location : Attempted to divide by zero.

 Error Page Url: http://localhost:56832/Admin.aspx?Fbj8B3qg9S1Qy7PJpim8iHKjzEKpcbHWnkmzL5IsQIdPFC4rXIXX0mY4hrUX6pZA%2bqaKouRzGF0zsgUzR0w6QUAqaB1YS5N6%2bifXX3cmkAu843OB4GZEoInlotGYfh0b

User Host IP: 


--------------------------------*End*------------------------------------------



-----------Exception Details on  06-01-2022 11:28:03 AM-----------------
-------------------------------------------------------------------------------------



Log Written Date: 06-01-2022 11:28:03 AM

Error Line No : line 38

Error Message: NullReferenceException

Exception Type: System.NullReferenceException

Error Location : Object reference not set to an instance of an object.

 Error Page Url: http://localhost:56832/Admin.aspx?Fbj8B3qg9S1Qy7PJpim8iHKjzEKpcbHWnkmzL5IsQIdPFC4rXIXX0mY4hrUX6pZA%2bqaKouRzGF0zsgUzR0w6QUAqaB1YS5N6%2bifXX3cmkAu843OB4GZEoInlotGYfh0b

User Host IP: 


--------------------------------*End*------------------------------------------



-----------Exception Details on  06-01-2022 11:47:53 AM-----------------
-------------------------------------------------------------------------------------



Log Written Date: 06-01-2022 11:47:53 AM

Error Line No : line 69

Error Message: DivideByZeroException

Exception Type: System.DivideByZeroException

Error Location : Attempted to divide by zero.

 Error Page Url: http://localhost:56832/Admin.aspx?Fbj8B3qg9S1Qy7PJpim8iHKjzEKpcbHWnkmzL5IsQIdPFC4rXIXX0mY4hrUX6pZAEE%2fLVaoqtdFAIgNf8ddA0Lzr51CTDQEOQK8pVMObwCbyS6jAgKqC%2fhpFFOAWKIBC

User Host IP: 


--------------------------------*End*------------------------------------------



-----------Exception Details on  06-01-2022 11:47:58 AM-----------------
-------------------------------------------------------------------------------------



Log Written Date: 06-01-2022 11:47:58 AM

Error Line No : line 38

Error Message: NullReferenceException

Exception Type: System.NullReferenceException

Error Location : Object reference not set to an instance of an object.

 Error Page Url: http://localhost:56832/Admin.aspx?Fbj8B3qg9S1Qy7PJpim8iHKjzEKpcbHWnkmzL5IsQIdPFC4rXIXX0mY4hrUX6pZAEE%2fLVaoqtdFAIgNf8ddA0Lzr51CTDQEOQK8pVMObwCbyS6jAgKqC%2fhpFFOAWKIBC

User Host IP: 


--------------------------------*End*------------------------------------------



-----------Exception Details on  06-01-2022 11:48:14 AM-----------------
-------------------------------------------------------------------------------------



Log Written Date: 06-01-2022 11:48:14 AM

Error Line No : line 69

Error Message: DivideByZeroException

Exception Type: System.DivideByZeroException

Error Location : Attempted to divide by zero.

 Error Page Url: http://localhost:56832/Admin.aspx?Fbj8B3qg9S1Qy7PJpim8iHKjzEKpcbHWnkmzL5IsQIdPFC4rXIXX0mY4hrUX6pZAEE%2fLVaoqtdFAIgNf8ddA0Lzr51CTDQEOQK8pVMObwCbyS6jAgKqC%2fhpFFOAWKIBC

User Host IP: 


--------------------------------*End*------------------------------------------



-----------Exception Details on  06-01-2022 11:48:38 AM-----------------
-------------------------------------------------------------------------------------



Log Written Date: 06-01-2022 11:48:38 AM

Error Line No : line 38

Error Message: NullReferenceException

Exception Type: System.NullReferenceException

Error Location : Object reference not set to an instance of an object.

 Error Page Url: http://localhost:56832/Admin.aspx?Fbj8B3qg9S1Qy7PJpim8iHKjzEKpcbHWnkmzL5IsQIdPFC4rXIXX0mY4hrUX6pZAEE%2fLVaoqtdFAIgNf8ddA0Lzr51CTDQEOQK8pVMObwCbyS6jAgKqC%2fhpFFOAWKIBC

User Host IP: 


--------------------------------*End*------------------------------------------



-----------Exception Details on  06-01-2022 11:49:50 AM-----------------
-------------------------------------------------------------------------------------



Log Written Date: 06-01-2022 11:49:50 AM

Error Line No : line 76

Error Message: ThreadAbortException

Exception Type: System.Threading.ThreadAbortException

Error Location : Thread was being aborted.

 Error Page Url: http://localhost:56832/Admin.aspx?Fbj8B3qg9S1Qy7PJpim8iHKjzEKpcbHWnkmzL5IsQIdPFC4rXIXX0mY4hrUX6pZAnWlBuzFH%2be9lg%2b3cita%2bSysrJ2ebKazft4q3505A%2bufZtN3oCciYPtu2sZWYOylU

User Host IP: 


--------------------------------*End*------------------------------------------



-----------Exception Details on  06-01-2022 11:53:50 AM-----------------
-------------------------------------------------------------------------------------



Log Written Date: 06-01-2022 11:53:50 AM

Error Line No : line 31

Error Message: DivideByZeroException

Exception Type: System.DivideByZeroException

Error Location : Attempted to divide by zero.

 Error Page Url: http://localhost:56832/Admin.aspx?Fbj8B3qg9S1Qy7PJpim8iHKjzEKpcbHWnkmzL5IsQIdPFC4rXIXX0mY4hrUX6pZAuX924oEGg7tXivevQMGLtq6xDMCfkiiivaRRs8vNIty0bfGhn15isWVmgCCArXNo

User Host IP: 


--------------------------------*End*------------------------------------------



-----------Exception Details on  06-01-2022 11:54:19 AM-----------------
-------------------------------------------------------------------------------------



Log Written Date: 06-01-2022 11:54:19 AM

Error Line No : line 69

Error Message: DivideByZeroException

Exception Type: System.DivideByZeroException

Error Location : Attempted to divide by zero.

 Error Page Url: http://localhost:56832/Admin.aspx?Fbj8B3qg9S1Qy7PJpim8iHKjzEKpcbHWnkmzL5IsQIdPFC4rXIXX0mY4hrUX6pZAuX924oEGg7tXivevQMGLtq6xDMCfkiiivaRRs8vNIty0bfGhn15isWVmgCCArXNo

User Host IP: 


--------------------------------*End*------------------------------------------



-----------Exception Details on  06-01-2022 11:55:27 AM-----------------
-------------------------------------------------------------------------------------



Log Written Date: 06-01-2022 11:55:27 AM

Error Line No : line 69

Error Message: DivideByZeroException

Exception Type: System.DivideByZeroException

Error Location : Attempted to divide by zero.

 Error Page Url: http://localhost:56832/Admin.aspx?Fbj8B3qg9S1Qy7PJpim8iHKjzEKpcbHWnkmzL5IsQIdPFC4rXIXX0mY4hrUX6pZAuX924oEGg7tXivevQMGLtq6xDMCfkiiivaRRs8vNIty0bfGhn15isWVmgCCArXNo

User Host IP: 


--------------------------------*End*------------------------------------------



-----------Exception Details on  06-01-2022 11:55:37 AM-----------------
-------------------------------------------------------------------------------------



Log Written Date: 06-01-2022 11:55:37 AM

Error Line No : line 38

Error Message: NullReferenceException

Exception Type: System.NullReferenceException

Error Location : Object reference not set to an instance of an object.

 Error Page Url: http://localhost:56832/Admin.aspx?Fbj8B3qg9S1Qy7PJpim8iHKjzEKpcbHWnkmzL5IsQIdPFC4rXIXX0mY4hrUX6pZAuX924oEGg7tXivevQMGLtq6xDMCfkiiivaRRs8vNIty0bfGhn15isWVmgCCArXNo

User Host IP: 


--------------------------------*End*------------------------------------------



-----------Exception Details on  06-01-2022 11:55:53 AM-----------------
-------------------------------------------------------------------------------------



Log Written Date: 06-01-2022 11:55:53 AM

Error Line No : line 69

Error Message: DivideByZeroException

Exception Type: System.DivideByZeroException

Error Location : Attempted to divide by zero.

 Error Page Url: http://localhost:56832/Admin.aspx?Fbj8B3qg9S1Qy7PJpim8iHKjzEKpcbHWnkmzL5IsQIdPFC4rXIXX0mY4hrUX6pZAuX924oEGg7tXivevQMGLtq6xDMCfkiiivaRRs8vNIty0bfGhn15isWVmgCCArXNo

User Host IP: 


--------------------------------*End*------------------------------------------



-----------Exception Details on  06-01-2022 11:58:01 AM-----------------
-------------------------------------------------------------------------------------



Log Written Date: 06-01-2022 11:58:01 AM

Error Line No : line 38

Error Message: NullReferenceException

Exception Type: System.NullReferenceException

Error Location : Object reference not set to an instance of an object.

 Error Page Url: http://localhost:56832/Admin.aspx?Fbj8B3qg9S1Qy7PJpim8iHKjzEKpcbHWnkmzL5IsQIdPFC4rXIXX0mY4hrUX6pZAuX924oEGg7tXivevQMGLtq6xDMCfkiiivaRRs8vNIty0bfGhn15isWVmgCCArXNo

User Host IP: 


--------------------------------*End*------------------------------------------



-----------Exception Details on  06-01-2022 11:58:44 AM-----------------
-------------------------------------------------------------------------------------



Log Written Date: 06-01-2022 11:58:44 AM

Error Line No : line 69

Error Message: DivideByZeroException

Exception Type: System.DivideByZeroException

Error Location : Attempted to divide by zero.

 Error Page Url: http://localhost:56832/Admin.aspx?Fbj8B3qg9S1Qy7PJpim8iHKjzEKpcbHWnkmzL5IsQIdPFC4rXIXX0mY4hrUX6pZAuX924oEGg7tXivevQMGLtq6xDMCfkiiivaRRs8vNIty0bfGhn15isWVmgCCArXNo

User Host IP: 


--------------------------------*End*------------------------------------------



-----------Exception Details on  06-01-2022 11:58:48 AM-----------------
-------------------------------------------------------------------------------------



Log Written Date: 06-01-2022 11:58:48 AM

Error Line No : line 38

Error Message: NullReferenceException

Exception Type: System.NullReferenceException

Error Location : Object reference not set to an instance of an object.

 Error Page Url: http://localhost:56832/Admin.aspx?Fbj8B3qg9S1Qy7PJpim8iHKjzEKpcbHWnkmzL5IsQIdPFC4rXIXX0mY4hrUX6pZAuX924oEGg7tXivevQMGLtq6xDMCfkiiivaRRs8vNIty0bfGhn15isWVmgCCArXNo

User Host IP: 


--------------------------------*End*------------------------------------------



